…
Using select
------------

Back do dplyr

``` r
select(gapminder, year, lifeExp)
```

    ## # A tibble: 1,704 x 2
    ##     year lifeExp
    ##    <int>   <dbl>
    ##  1  1952    28.8
    ##  2  1957    30.3
    ##  3  1962    32.0
    ##  4  1967    34.0
    ##  5  1972    36.1
    ##  6  1977    38.4
    ##  7  1982    39.9
    ##  8  1987    40.8
    ##  9  1992    41.7
    ## 10  1997    41.8
    ## # … with 1,694 more rows
…
